{
  "kind": "collectionType",
  "collectionName": "galleries",
  "info": {
    "singularName": "gallery",
    "pluralName": "galleries",
    "displayName": "Gallery",
    "description": ""
  },
  "options": {
    "draftAndPublish": true
  },
  "pluginOptions": {},
  "attributes": {
    "name": {
      "type": "string",
      "required": true,
      "unique": true
    },
    "pictures": {
      "type": "component",
      "repeatable": true,
      "component": "images.picture",
      "required": true
    }
  }
}
